<?xml version="1.0" encoding="UTF-8" standalone="no"?>
<!-- Created with Inkscape (http://www.inkscape.org/) -->

<svg
   xmlns:dc="http://purl.org/dc/elements/1.1/"
   xmlns:cc="http://creativecommons.org/ns#"
   xmlns:rdf="http://www.w3.org/1999/02/22-rdf-syntax-ns#"
   xmlns:svg="http://www.w3.org/2000/svg"
   xmlns="http://www.w3.org/2000/svg"
   xmlns:sodipodi="http://sodipodi.sourceforge.net/DTD/sodipodi-0.dtd"
   xmlns:inkscape="http://www.inkscape.org/namespaces/inkscape"
   width="32px"
   height="32px"
   viewBox="0 0 32 32"
   version="1.1"
   id="SVGRoot"
   inkscape:version="0.92.3 (2405546, 2018-03-11)"
   sodipodi:docname="newTarget.svg">
  <sodipodi:namedview
     id="base"
     pagecolor="#ffffff"
     bordercolor="#666666"
     borderopacity="1.0"
     inkscape:pageopacity="0.0"
     inkscape:pageshadow="2"
     inkscape:zoom="11.313709"
     inkscape:cx="-8.1356664"
     inkscape:cy="14.002468"
     inkscape:document-units="px"
     inkscape:current-layer="layer1"
     showgrid="false"
     inkscape:window-width="1920"
     inkscape:window-height="1025"
     inkscape:window-x="0"
     inkscape:window-y="27"
     inkscape:window-maximized="1"
     inkscape:grid-bbox="true" />
  <defs
     id="defs925">
    <marker
       inkscape:stockid="Arrow2Lend"
       orient="auto"
       refY="0.0"
       refX="0.0"
       id="Arrow2Lend"
       style="overflow:visible;"
       inkscape:isstock="true">
      <path
         id="path2213"
         style="fill-rule:evenodd;stroke-width:0.625;stroke-linejoin:round;stroke:#696969;stroke-opacity:1;fill:#696969;fill-opacity:1"
         d="M 8.7185878,4.0337352 L -2.2072895,0.016013256 L 8.7185884,-4.0017078 C 6.9730900,-1.6296469 6.9831476,1.6157441 8.7185878,4.0337352 z "
         transform="scale(1.1) rotate(180) translate(1,0)" />
    </marker>
  </defs>
  <metadata
     id="metadata928">
    <rdf:RDF>
      <cc:Work
         rdf:about="">
        <dc:format>image/svg+xml</dc:format>
        <dc:type
           rdf:resource="http://purl.org/dc/dcmitype/StillImage" />
        <dc:title />
      </cc:Work>
    </rdf:RDF>
  </metadata>
  <g
     id="layer1"
     inkscape:groupmode="layer"
     inkscape:label="Layer 1">
    <g
       transform="matrix(0.01360785,0,0,0.01360785,14.151092,4.9253421)"
       id="g907">
      <path
         d="M 406.7,150 H 103.3 C 52,150 10,192 10,243.3 V 756.6 C 10,808 52,850 103.3,850 h 793.3 c 51.3,0 93.3,-42 93.3,-93.3 V 348.3 C 989.9,297 947.9,255 896.6,255 H 500 Z"
         id="path905"
         inkscape:connector-curvature="0" />
    </g>
    <g
       transform="matrix(1.0979699,0,0,1.0979699,-2.2204632,-2.4646071)"
       id="g2120">
      <path
         sodipodi:nodetypes="cccccc"
         inkscape:connector-curvature="0"
         id="path17445"
         d="M 7.1034222,3.0281178 V 30.878237 H 29.066795 L 28.789837,7.5569431 23.956712,2.8654539 Z"
         style="fill:none;stroke:#000000;stroke-width:1.13341045px;stroke-linecap:butt;stroke-linejoin:miter;stroke-opacity:1" />
      <path
         sodipodi:nodetypes="ccc"
         inkscape:connector-curvature="0"
         id="path17498"
         d="m 23.956712,2.8654539 v 4.6979247 l 4.833125,-0.00644"
         style="fill:none;stroke:#000000;stroke-width:1.45696735;stroke-linecap:butt;stroke-linejoin:miter;stroke-miterlimit:4;stroke-dasharray:none;stroke-opacity:1" />
    </g>
    <g
       transform="matrix(0.0108843,0,0,0.0108843,7.2394142,20.431372)"
       id="g907-3">
      <path
         d="M 406.7,150 H 103.3 C 52,150 10,192 10,243.3 V 756.6 C 10,808 52,850 103.3,850 h 793.3 c 51.3,0 93.3,-42 93.3,-93.3 V 348.3 C 989.9,297 947.9,255 896.6,255 H 500 Z"
         id="path905-6"
         inkscape:connector-curvature="0" />
    </g>
    <g
       transform="translate(-2.45116,-0.5004221)"
       id="g2164">
      <circle
         r="6.0987959"
         cy="7.2207828"
         cx="9.0254545"
         id="path17500"
         style="fill:#696969;fill-opacity:1;stroke:#696969;stroke-width:1.13385832;stroke-linecap:butt;stroke-linejoin:miter;stroke-miterlimit:4;stroke-dasharray:none;stroke-dashoffset:0;stroke-opacity:1;paint-order:normal" />
      <text
         id="text17504"
         y="11.400471"
         x="3.4395175"
         style="font-style:normal;font-weight:normal;font-size:13.33333302px;line-height:1.25;font-family:sans-serif;letter-spacing:0px;word-spacing:0px;fill:#ffffff;fill-opacity:1;stroke:none"
         xml:space="preserve"><tspan
           y="11.400471"
           x="3.4395175"
           id="tspan17502"
           sodipodi:role="line">+</tspan></text>
    </g>
    <path
       style="fill:#696969;stroke:#696969;stroke-width:0.26973751;stroke-linecap:round;stroke-linejoin:miter;stroke-miterlimit:4;stroke-dasharray:none;stroke-opacity:1;marker-end:url(#Arrow2Lend)"
       d="m 19.127121,17.556209 -4.769308,4.769308"
       id="path2190"
       inkscape:connector-curvature="0" />
  </g>
</svg>
