<?xml version="1.0" encoding="UTF-8" standalone="no"?>
<!-- Created with Inkscape (http://www.inkscape.org/) -->

<svg
   xmlns:dc="http://purl.org/dc/elements/1.1/"
   xmlns:cc="http://creativecommons.org/ns#"
   xmlns:rdf="http://www.w3.org/1999/02/22-rdf-syntax-ns#"
   xmlns:svg="http://www.w3.org/2000/svg"
   xmlns="http://www.w3.org/2000/svg"
   xmlns:sodipodi="http://sodipodi.sourceforge.net/DTD/sodipodi-0.dtd"
   xmlns:inkscape="http://www.inkscape.org/namespaces/inkscape"
   id="SVGRoot"
   version="1.1"
   viewBox="0 0 32 32"
   height="32px"
   width="32px"
   inkscape:version="0.92.3 (2405546, 2018-03-11)"
   sodipodi:docname="newTag.svg">
  <sodipodi:namedview
     inkscape:grid-bbox="true"
     inkscape:window-maximized="1"
     inkscape:window-y="27"
     inkscape:window-x="0"
     inkscape:window-height="1025"
     inkscape:window-width="1920"
     showgrid="false"
     inkscape:current-layer="layer1"
     inkscape:document-units="px"
     inkscape:cy="14.003559"
     inkscape:cx="10.169505"
     inkscape:zoom="22.627417"
     inkscape:pageshadow="2"
     inkscape:pageopacity="0.0"
     borderopacity="1.0"
     bordercolor="#666666"
     pagecolor="#ffffff"
     id="base"
     showguides="false" />
  <defs
     id="defs16878" />
  <metadata
     id="metadata16881">
    <rdf:RDF>
      <cc:Work
         rdf:about="">
        <dc:format>image/svg+xml</dc:format>
        <dc:type
           rdf:resource="http://purl.org/dc/dcmitype/StillImage" />
        <dc:title />
      </cc:Work>
    </rdf:RDF>
  </metadata>
  <g
     id="layer1"
     inkscape:groupmode="layer"
     inkscape:label="Layer 1">
    <text
       xml:space="preserve"
       style="font-style:normal;font-weight:normal;font-size:5.53610849px;line-height:1.25;font-family:sans-serif;letter-spacing:0px;word-spacing:0px;fill:#000000;fill-opacity:1;stroke:none;stroke-width:0.41520816"
       x="5.7870069"
       y="27.557575"
       id="text17439"
       transform="scale(0.95531998,1.0467697)"><tspan
         sodipodi:role="line"
         id="tspan17437"
         x="5.7870069"
         y="27.557575"
         style="font-size:11.54337692px;line-height:2.25;stroke-width:0.41520816">[<tspan
   style="font-size:11.54337692px;line-height:2.25;fill:#ff0000;stroke-width:0.41520816"
   id="tspan17443">XX</tspan>]</tspan></text>
    <g
       id="g2120"
       transform="matrix(1.1000677,0,0,1.1000677,-2.5456852,-2.6162935)">
      <path
         sodipodi:nodetypes="cccccc"
         inkscape:connector-curvature="0"
         id="path17445"
         d="M 7.1034222,3.0281178 V 30.878237 H 29.066795 L 28.789837,7.5569431 23.956712,2.8654539 Z"
         style="fill:none;stroke:#000000;stroke-width:1.13341045px;stroke-linecap:butt;stroke-linejoin:miter;stroke-opacity:1" />
      <path
         sodipodi:nodetypes="ccc"
         inkscape:connector-curvature="0"
         id="path17498"
         d="m 23.956712,2.8654539 v 4.6979247 l 4.833125,-0.00644"
         style="fill:none;stroke:#000000;stroke-width:1.45696735;stroke-linecap:butt;stroke-linejoin:miter;stroke-miterlimit:4;stroke-dasharray:none;stroke-opacity:1" />
    </g>
    <g
       id="g2164"
       transform="translate(-2.4306794,-0.66291266)">
      <circle
         r="6.0987959"
         cy="7.2207828"
         cx="9.0254545"
         id="path17500"
         style="fill:#696969;fill-opacity:1;stroke:#696969;stroke-width:1.13385832;stroke-linecap:butt;stroke-linejoin:miter;stroke-miterlimit:4;stroke-dasharray:none;stroke-dashoffset:0;stroke-opacity:1;paint-order:normal" />
      <text
         id="text17504"
         y="11.400471"
         x="3.4395175"
         style="font-style:normal;font-weight:normal;font-size:13.33333302px;line-height:1.25;font-family:sans-serif;letter-spacing:0px;word-spacing:0px;fill:#ffffff;fill-opacity:1;stroke:none"
         xml:space="preserve"><tspan
           y="11.400471"
           x="3.4395175"
           id="tspan17502"
           sodipodi:role="line">+</tspan></text>
    </g>
  </g>
</svg>
