<?xml version="1.0" encoding="UTF-8" standalone="no"?>
<!-- Created with Inkscape (http://www.inkscape.org/) -->

<svg
   xmlns:dc="http://purl.org/dc/elements/1.1/"
   xmlns:cc="http://creativecommons.org/ns#"
   xmlns:rdf="http://www.w3.org/1999/02/22-rdf-syntax-ns#"
   xmlns:svg="http://www.w3.org/2000/svg"
   xmlns="http://www.w3.org/2000/svg"
   xmlns:sodipodi="http://sodipodi.sourceforge.net/DTD/sodipodi-0.dtd"
   xmlns:inkscape="http://www.inkscape.org/namespaces/inkscape"
   width="32px"
   height="32px"
   viewBox="0 0 32 32"
   version="1.1"
   id="SVGRoot"
   inkscape:version="0.92.3 (2405546, 2018-03-11)"
   sodipodi:docname="redo.svg">
  <sodipodi:namedview
     id="base"
     pagecolor="#ffffff"
     bordercolor="#666666"
     borderopacity="1.0"
     inkscape:pageopacity="0.0"
     inkscape:pageshadow="2"
     inkscape:zoom="22.627417"
     inkscape:cx="10.572627"
     inkscape:cy="16.55133"
     inkscape:document-units="px"
     inkscape:current-layer="layer1"
     showgrid="false"
     inkscape:window-width="1920"
     inkscape:window-height="1025"
     inkscape:window-x="0"
     inkscape:window-y="27"
     inkscape:window-maximized="1"
     inkscape:grid-bbox="true" />
  <defs
     id="defs1437" />
  <metadata
     id="metadata1440">
    <rdf:RDF>
      <cc:Work
         rdf:about="">
        <dc:format>image/svg+xml</dc:format>
        <dc:type
           rdf:resource="http://purl.org/dc/dcmitype/StillImage" />
        <dc:title></dc:title>
      </cc:Work>
    </rdf:RDF>
  </metadata>
  <g
     id="layer1"
     inkscape:groupmode="layer"
     inkscape:label="Layer 1">
    <path
       style="fill:none;fill-opacity:1;stroke:#0000ff;stroke-width:3.38830042;stroke-linecap:square;stroke-linejoin:miter;stroke-miterlimit:4;stroke-dasharray:none;stroke-dashoffset:0;stroke-opacity:1;paint-order:normal"
       d="m 21.416339,2.8948113 c 1.664768,0.704138 3.163987,1.72304 4.423048,2.982101 1.25906,1.259061 2.277963,2.75828 2.982112,4.4230467 0.704137,1.664769 1.09351,3.495087 1.09351,5.416351 0,7.685047 -6.229962,13.915008 -13.915009,13.915008 -7.685048,0 -13.915009,-6.229962 -13.915009,-13.915008 0,-0.240159 0.0059,-0.478894 0.0181,-0.716066 0.01201,-0.237169 0.02998,-0.472772 0.05374,-0.706664 0.02375,-0.233889 0.0533,-0.466068 0.0885,-0.696389 0.0352,-0.23032 0.07603,-0.458783 0.122373,-0.685241 0.04634,-0.226459 0.09818,-0.450914 0.155377,-0.673219 0.0572,-0.222304 0.119744,-0.442459 0.187509,-0.660319 0.06776,-0.21786 0.140726,-0.433426 0.218763,-0.646549 0.07803,-0.213125 0.161138,-0.423807 0.249152,-0.631903 0.08802,-0.208095 0.180952,-0.4136047 0.278659,-0.6163827 0.0977,-0.202776 0.200184,-0.402821 0.307291,-0.599987 0.107093,-0.197166 0.218833,-0.391454 0.335047,-0.582719 0.116216,-0.191264 0.236912,-0.379504 0.361943,-0.564575 0.125032,-0.185071 0.254399,-0.366972 0.387955,-0.545558 0.133555,-0.178586 0.271302,-0.353857 0.413092,-0.525666 0.14179,-0.17181 0.287625,-0.340159 0.437356,-0.5049 0.149732,-0.164742 0.303362,-0.325877 0.460744,-0.48326 0.157383,-0.157382 0.318517,-0.311012 0.483258,-0.460744 0.164744,-0.149732 0.333093,-0.295566 0.504901,-0.437356 0.17181,-0.14179 0.347079,-0.279535 0.525667,-0.413092 0.178586,-0.133556 0.442619,-0.328628 0.627688,-0.45366"
       id="path1397"
       inkscape:connector-curvature="0"
       sodipodi:nodetypes="cssssssssssssssssssssssssc" />
    <path
       style="fill:#0000ff;fill-opacity:1;stroke:#0000ff;stroke-width:1.53032541px;stroke-linecap:butt;stroke-linejoin:miter;stroke-opacity:1"
       d="m 8.376038,1.341336 2.391047,5.472932 2.985,-4.665844 z"
       id="path1400"
       inkscape:connector-curvature="0" />
  </g>
</svg>
