<?xml version="1.0" encoding="UTF-8" standalone="no"?>
<!-- Created with Inkscape (http://www.inkscape.org/) -->

<svg
   xmlns:dc="http://purl.org/dc/elements/1.1/"
   xmlns:cc="http://creativecommons.org/ns#"
   xmlns:rdf="http://www.w3.org/1999/02/22-rdf-syntax-ns#"
   xmlns:svg="http://www.w3.org/2000/svg"
   xmlns="http://www.w3.org/2000/svg"
   xmlns:sodipodi="http://sodipodi.sourceforge.net/DTD/sodipodi-0.dtd"
   xmlns:inkscape="http://www.inkscape.org/namespaces/inkscape"
   width="32px"
   height="32px"
   viewBox="0 0 32 32"
   version="1.1"
   id="SVGRoot"
   inkscape:version="0.92.3 (2405546, 2018-03-11)"
   sodipodi:docname="keybinds.svg">
  <sodipodi:namedview
     id="base"
     pagecolor="#ffffff"
     bordercolor="#666666"
     borderopacity="1.0"
     inkscape:pageopacity="0.0"
     inkscape:pageshadow="2"
     inkscape:zoom="22.627417"
     inkscape:cx="7.9125058"
     inkscape:cy="14.519334"
     inkscape:document-units="px"
     inkscape:current-layer="layer1"
     showgrid="false"
     inkscape:window-width="1920"
     inkscape:window-height="1024"
     inkscape:window-x="0"
     inkscape:window-y="28"
     inkscape:window-maximized="1"
     inkscape:grid-bbox="true" />
  <defs
     id="defs815">
    <inkscape:path-effect
       effect="powerstroke"
       id="path-effect1484"
       is_visible="true"
       offset_points="0,0.5"
       sort_points="true"
       interpolator_type="CubicBezierJohan"
       interpolator_beta="0.2"
       start_linecap_type="zerowidth"
       linejoin_type="extrp_arc"
       miter_limit="4"
       end_linecap_type="zerowidth" />
    <inkscape:path-effect
       effect="powerstroke"
       id="path-effect1480"
       is_visible="true"
       offset_points="0,0.5"
       sort_points="true"
       interpolator_type="CubicBezierJohan"
       interpolator_beta="0.2"
       start_linecap_type="zerowidth"
       linejoin_type="extrp_arc"
       miter_limit="4"
       end_linecap_type="zerowidth" />
  </defs>
  <metadata
     id="metadata818">
    <rdf:RDF>
      <cc:Work
         rdf:about="">
        <dc:format>image/svg+xml</dc:format>
        <dc:type
           rdf:resource="http://purl.org/dc/dcmitype/StillImage" />
        <dc:title></dc:title>
      </cc:Work>
    </rdf:RDF>
  </metadata>
  <g
     id="layer1"
     inkscape:groupmode="layer"
     inkscape:label="Layer 1">
    <rect
       style="fill:#aad400;fill-opacity:1;stroke:none;stroke-width:0.71162874;stroke-linecap:round;stroke-linejoin:round;stroke-miterlimit:4;stroke-dasharray:none;stroke-dashoffset:0;stroke-opacity:1;paint-order:normal"
       id="rect1476"
       width="14.776068"
       height="14.818165"
       x="0.35295421"
       y="0.24204876" />
    <g
       id="g1383"
       transform="matrix(1.1551234,0,0,1.1551234,-1.575585,-1.5372898)">
      <rect
         y="1.5403885"
         x="1.6695528"
         height="12.828211"
         width="12.791767"
         id="rect1374"
         style="fill:none;fill-opacity:1;stroke:#000000;stroke-width:0.5080232;stroke-linecap:round;stroke-linejoin:round;stroke-miterlimit:4;stroke-dasharray:none;stroke-dashoffset:0;stroke-opacity:1;paint-order:normal" />
      <text
         id="text1378"
         y="7.3838453"
         x="2.1686819"
         style="font-style:normal;font-weight:normal;font-size:7.27106476px;line-height:1.25;font-family:sans-serif;letter-spacing:0px;word-spacing:0px;fill:#333333;fill-opacity:1;stroke:none;stroke-width:0.54532987"
         xml:space="preserve"><tspan
           style="stroke-width:0.54532987"
           y="7.3838453"
           x="2.1686819"
           id="tspan1376"
           sodipodi:role="line">A</tspan></text>
    </g>
    <g
       transform="matrix(1.1551234,0,0,1.1551234,14.942436,-1.5372898)"
       id="g1383-3">
      <rect
         y="1.5403885"
         x="1.6695528"
         height="12.828211"
         width="12.791767"
         id="rect1374-6"
         style="fill:none;fill-opacity:1;stroke:#000000;stroke-width:0.5080232;stroke-linecap:round;stroke-linejoin:round;stroke-miterlimit:4;stroke-dasharray:none;stroke-dashoffset:0;stroke-opacity:1;paint-order:normal" />
      <text
         id="text1378-7"
         y="7.3838453"
         x="2.1686819"
         style="font-style:normal;font-weight:normal;font-size:7.27106476px;line-height:1.25;font-family:sans-serif;letter-spacing:0px;word-spacing:0px;fill:#333333;fill-opacity:1;stroke:none;stroke-width:0.54532987"
         xml:space="preserve"><tspan
           style="stroke-width:0.54532987"
           y="7.3838453"
           x="2.1686819"
           id="tspan1376-5"
           sodipodi:role="line">B</tspan></text>
    </g>
    <g
       transform="matrix(1.1551234,0,0,1.1551234,6.6834256,15.160446)"
       id="g1383-3-3">
      <rect
         y="1.5403885"
         x="1.6695528"
         height="12.828211"
         width="12.791767"
         id="rect1374-6-5"
         style="fill:none;fill-opacity:1;stroke:#000000;stroke-width:0.5080232;stroke-linecap:round;stroke-linejoin:round;stroke-miterlimit:4;stroke-dasharray:none;stroke-dashoffset:0;stroke-opacity:1;paint-order:normal" />
      <text
         id="text1378-7-6"
         y="7.3838453"
         x="2.1686819"
         style="font-style:normal;font-weight:normal;font-size:7.27106476px;line-height:1.25;font-family:sans-serif;letter-spacing:0px;word-spacing:0px;fill:#333333;fill-opacity:1;stroke:none;stroke-width:0.54532987"
         xml:space="preserve"><tspan
           style="stroke-width:0.54532987"
           y="7.3838453"
           x="2.1686819"
           id="tspan1376-5-2"
           sodipodi:role="line">C</tspan></text>
    </g>
    <path
       style="fill:none;stroke:#ffdd55;stroke-width:1.66624725;stroke-linecap:butt;stroke-linejoin:miter;stroke-miterlimit:4;stroke-dasharray:none;stroke-opacity:1"
       d="m 31.173138,11.52685 -6.818373,6.818371 h 4.300822 l -5.087557,5.087552 h 4.24837 l -7.998473,7.998476"
       id="path1488"
       inkscape:connector-curvature="0"
       sodipodi:nodetypes="cccccc" />
  </g>
</svg>
