<?xml version="1.0" encoding="UTF-8" standalone="no"?>
<!-- Created with Inkscape (http://www.inkscape.org/) -->

<svg
   xmlns:dc="http://purl.org/dc/elements/1.1/"
   xmlns:cc="http://creativecommons.org/ns#"
   xmlns:rdf="http://www.w3.org/1999/02/22-rdf-syntax-ns#"
   xmlns:svg="http://www.w3.org/2000/svg"
   xmlns="http://www.w3.org/2000/svg"
   xmlns:sodipodi="http://sodipodi.sourceforge.net/DTD/sodipodi-0.dtd"
   xmlns:inkscape="http://www.inkscape.org/namespaces/inkscape"
   width="32px"
   height="32px"
   viewBox="0 0 32 32"
   version="1.1"
   id="SVGRoot"
   inkscape:version="0.92.3 (2405546, 2018-03-11)"
   sodipodi:docname="rotOH.svg">
  <sodipodi:namedview
     id="base"
     pagecolor="#ffffff"
     bordercolor="#666666"
     borderopacity="1.0"
     inkscape:pageopacity="0.0"
     inkscape:pageshadow="2"
     inkscape:zoom="16"
     inkscape:cx="10.558946"
     inkscape:cy="19.928978"
     inkscape:document-units="px"
     inkscape:current-layer="layer1"
     showgrid="false"
     inkscape:window-width="1920"
     inkscape:window-height="1025"
     inkscape:window-x="0"
     inkscape:window-y="27"
     inkscape:window-maximized="1"
     inkscape:grid-bbox="true" />
  <defs
     id="defs815" />
  <metadata
     id="metadata818">
    <rdf:RDF>
      <cc:Work
         rdf:about="">
        <dc:format>image/svg+xml</dc:format>
        <dc:type
           rdf:resource="http://purl.org/dc/dcmitype/StillImage" />
        <dc:title></dc:title>
      </cc:Work>
    </rdf:RDF>
  </metadata>
  <g
     id="layer1"
     inkscape:groupmode="layer"
     inkscape:label="Layer 1">
    <path
       style="fill:none;fill-opacity:1;stroke:#000000;stroke-width:3.38830042;stroke-linecap:square;stroke-linejoin:miter;stroke-miterlimit:4;stroke-dasharray:none;stroke-dashoffset:0;stroke-opacity:1;paint-order:normal"
       d="M 10.583661,3.4429665 C 8.9188927,4.1471044 7.4196742,5.1660073 6.1606135,6.425068 4.9015528,7.6841286 3.8826499,9.1833475 3.1785015,10.848115 2.4743638,12.512884 2.0849911,14.343202 2.0849912,16.264466 2.0849915,23.949513 8.3149529,30.179474 16,30.179474 c 7.685048,0 13.915009,-6.229962 13.915009,-13.915008 0,-0.240159 -0.0059,-0.478894 -0.0181,-0.716066 -0.01201,-0.237169 -0.02998,-0.472772 -0.05374,-0.706664 -0.02375,-0.233889 -0.0533,-0.466068 -0.0885,-0.696389 -0.0352,-0.23032 -0.07603,-0.458783 -0.122373,-0.685241 -0.04634,-0.226459 -0.09818,-0.450914 -0.155377,-0.673219 -0.0572,-0.222304 -0.119744,-0.442459 -0.187509,-0.660319 -0.06776,-0.21786 -0.140726,-0.433426 -0.218763,-0.646549 -0.07803,-0.213125 -0.161138,-0.423807 -0.249152,-0.631903 -0.08802,-0.208095 -0.180952,-0.413605 -0.278659,-0.616383 C 28.445131,10.028957 28.342652,9.8289117 28.235545,9.6317456 28.128452,9.4345795 28.016712,9.2402917 27.900498,9.0490267 27.784282,8.8577628 27.663586,8.6695229 27.538555,8.4844517 27.413523,8.2993806 27.284156,8.1174795 27.1506,7.9388934 27.017045,7.7603078 26.879298,7.5850371 26.737508,7.4132275 26.595718,7.241418 26.449883,7.0730693 26.300152,6.9083277 26.15042,6.7435858 25.99679,6.5824508 25.839408,6.4250683 25.682025,6.2676857 25.520891,6.1140556 25.35615,5.9643236 25.191406,5.8145917 25.023057,5.6687579 24.851249,5.526968 24.679439,5.3851781 24.50417,5.2474324 24.325582,5.113876 24.146996,4.9803197 23.882963,4.7852475 23.697894,4.6602161"
       id="path1397"
       inkscape:connector-curvature="0"
       sodipodi:nodetypes="cssssssssssssssssssssssssc" />
    <path
       style="fill:#000000;fill-opacity:1;stroke:#000000;stroke-width:1.53032541px;stroke-linecap:butt;stroke-linejoin:miter;stroke-opacity:1"
       d="m 23.748962,1.3440951 -2.391047,5.4729322 -2.985,-4.6658445 z"
       id="path1400"
       inkscape:connector-curvature="0" />
    <text
       xml:space="preserve"
       style="font-style:normal;font-weight:normal;font-size:9.23922348px;line-height:1.25;font-family:sans-serif;letter-spacing:0px;word-spacing:0px;fill:#000000;fill-opacity:1;stroke:none;stroke-width:0.69294184"
       x="5.7756166"
       y="19.363203"
       id="text1404"><tspan
         sodipodi:role="line"
         id="tspan1402"
         x="5.7756166"
         y="19.363203"
         style="stroke-width:0.69294184">180°</tspan></text>
  </g>
</svg>
